…
As always, we start by downloading and manipulating the data. I’ve added in two steps that aren’t strictly necessary. One is converting the Date, Time, and Day columns into a single Date column. The other is to drop most of the other columns of data, since we aren’t interested in them here.

url <- "http://www1.toronto.ca/City%20Of%20Toronto/Information%20&%20Technology/Open%20Data/Data%20Sets/Assets/Files/Subway%20&%20SRT%20Logs%20(Jan01_14%20to%20April30_17).xlsx"
filename <- basename(url)
download.file(url, destfile = filename, mode = "wb")
delays <- readxl::read_excel(filename, sheet = 2) %>% 
  dplyr::mutate(date = lubridate::ymd_hm(paste(`Date`, 
                                               `Time`, 
                                               sep = " ")),
                delay = `Min Delay`) %>% 
  dplyr::select(date, delay)
delays

## # A tibble: 69,043 x 2
##                   date delay
##                 <dttm> <dbl>
##  1 2014-01-01 02:06:00     3
##  2 2014-01-01 02:40:00     0
##  3 2014-01-01 03:10:00     3
##  4 2014-01-01 03:20:00     5
##  5 2014-01-01 03:29:00     0
##  6 2014-01-01 07:31:00     0
##  7 2014-01-01 07:32:00     0
##  8 2014-01-01 07:34:00     0
##  9 2014-01-01 07:34:00     0
## 10 2014-01-01 07:53:00     0
## # ... with 69,033 more rows
…
We need to identify any days that are a Friday the 13th. We also might want to compare weekends, regular Fridays, other weekdays, and Friday the 13ths, so we add a type column that provides these values. Here we use the case_when function:

delays <- delays %>% 
    dplyr::mutate(type = case_when( # Partition into Friday the 13ths, Fridays, weekends, and weekdays
      lubridate::wday(.$date) %in% c(1, 7) ~ "weekend",
      lubridate::wday(.$date) %in% c(6) & 
        lubridate::day(.$date) == 13 ~ "Friday 13th",
      lubridate::wday(.$date) %in% c(6) ~ "Friday",
      TRUE ~ "weekday" # Everything else is a weekday
  )) %>% 
  dplyr::mutate(type = factor(type)) %>% 
  dplyr::group_by(type)
delays

## # A tibble: 69,043 x 3
## # Groups:   type [4]
##                   date delay    type
##                 <dttm> <dbl>  <fctr>
##  1 2014-01-01 02:06:00     3 weekday
##  2 2014-01-01 02:40:00     0 weekday
##  3 2014-01-01 03:10:00     3 weekday
##  4 2014-01-01 03:20:00     5 weekday
##  5 2014-01-01 03:29:00     0 weekday
##  6 2014-01-01 07:31:00     0 weekday
##  7 2014-01-01 07:32:00     0 weekday
##  8 2014-01-01 07:34:00     0 weekday
##  9 2014-01-01 07:34:00     0 weekday
## 10 2014-01-01 07:53:00     0 weekday
## # ... with 69,033 more rows
…
