…
  # The header spans mess up the header row, so renaming
  names(this_table) <- c(this_table[1,-c(3,4)], "NA", "Incumbent")
  # Get rid of the blank spacer columns
  this_table <- this_table[-1, ]
  # Drop the NA columns by keeping only odd columns
  this_table <- this_table[,seq(from = 1, to = dim(this_table)[2], by = 2)]
  this_table %<>%
    tidyr::gather(party, candidate, -`Electoral District`) %>%
    dplyr::rename(electoral_district_name = `Electoral District`) %>%
    dplyr::filter(party != "Incumbent")
  candidate_parties <- dplyr::bind_rows(candidate_parties, this_table)
}
candidate_parties

## # A tibble: 649 x 3
##       electoral_district_name   party            candidate
##                         <chr>   <chr>                <chr>
##  1 Carleton—Mississippi Mills Liberal      Rosalyn Stevens
##  2            Nepean—Carleton Liberal           Jack Uppal
##  3              Ottawa Centre Liberal          Yasir Naqvi
##  4             Ottawa—Orléans Liberal Marie-France Lalonde
##  5               Ottawa South Liberal          John Fraser
##  6              Ottawa—Vanier Liberal   Madeleine Meilleur
##  7         Ottawa West—Nepean Liberal        Bob Chiarelli
##  8 Carleton—Mississippi Mills      PC        Jack MacLaren
##  9            Nepean—Carleton      PC         Lisa MacLeod
## 10              Ottawa Centre      PC           Rob Dekker
## # ... with 639 more rows
…
electoral_districts <- xml2::read_html(ed_webpage) %>%
  rvest::html_node(xpath = ed_xpath) %>%
  rvest::html_nodes("option") %>%
  rvest::html_text() %>%
  .[-1] %>% # Drop the first item on the list ("Select...")
  tibble::as.tibble() %>% # Convert to a data frame and split into ID number and name
  tidyr::separate(value, c("electoral_district", "electoral_district_name"),
                  sep = " ",
                  extra = "merge") %>%
  # Clean up district names for later matching and presentation
  dplyr::mutate(electoral_district_name = stringr::str_to_title(
    stringr::str_replace_all(electoral_district_name, "--", "—")))
electoral_districts

## # A tibble: 107 x 2
##    electoral_district              electoral_district_name
##                 <chr>                                <chr>
##  1                001                       Ajax—Pickering
##  2                002                    Algoma—Manitoulin
##  3                003 Ancaster—Dundas—Flamborough—Westdale
##  4                004                               Barrie
##  5                005                    Beaches—East York
##  6                006                 Bramalea—Gore—Malton
##  7                007                  Brampton—Springdale
##  8                008                        Brampton West
##  9                009                                Brant
## 10                010                Bruce—Grey—Owen Sound
## # ... with 97 more rows
…
## Joining, by = "electoral_district_name"

candidate_parties

## # A tibble: 578 x 4
##       electoral_district_name   party      candidate electoral_district
##  *                      <chr>   <chr>          <chr>              <chr>
##  1 Carleton—Mississippi Mills Liberal        Stevens                013
##  2            Nepean—Carleton Liberal          Uppal                052
##  3              Ottawa Centre Liberal          Naqvi                062
##  4             Ottawa—Orléans Liberal France Lalonde                063
##  5               Ottawa South Liberal         Fraser                064
##  6              Ottawa—Vanier Liberal       Meilleur                065
##  7         Ottawa West—Nepean Liberal      Chiarelli                066
##  8 Carleton—Mississippi Mills      PC       MacLaren                013
##  9            Nepean—Carleton      PC        MacLeod                052
## 10              Ottawa Centre      PC         Dekker                062
## # ... with 568 more rows
…
  # Declare col_types since there are duplicate surnames and map_df can't recast column types in the rbind
  # For example, Bell is in both district 014 and 063
  dplyr::select(-starts_with("X__")) %>% # Drop all of the blank columns
  dplyr::select(1:2,4:8,15:dim(.)[2]) %>% # Reorganize a bit and drop unneeded columns
  dplyr::rename(poll_number = `POLL NO.`) %>%
  tidyr::gather(candidate, votes, -file, -poll_number) %>% # Convert to a long table
  dplyr::filter(!is.na(votes),
                poll_number != "Totals") %>%
  dplyr::mutate(electoral_district = stringr::str_extract(file, "[[:digit:]]{3}"),
                votes = as.numeric(votes)) %>%
  dplyr::select(-file) %>%
  dplyr::left_join(electoral_districts)
poll_data

## # A tibble: 143,455 x 5
##    poll_number candidate votes electoral_district electoral_district_name
##          <chr>     <chr> <dbl>              <chr>                   <chr>
##  1         001   DICKSON    73                001          Ajax—Pickering
##  2         002   DICKSON   144                001          Ajax—Pickering
##  3         003   DICKSON    68                001          Ajax—Pickering
##  4         006   DICKSON   120                001          Ajax—Pickering
##  5         007   DICKSON    74                001          Ajax—Pickering
##  6        008A   DICKSON    65                001          Ajax—Pickering
##  7        008B   DICKSON    81                001          Ajax—Pickering
##  8         009   DICKSON   112                001          Ajax—Pickering
##  9         010   DICKSON   115                001          Ajax—Pickering
## 10         011   DICKSON    74                001          Ajax—Pickering
## # ... with 143,445 more rows
…
