…
download.file("http://opendata.toronto.ca/gcc/voting_location_2018_wgs84.zip",
                destfile = "data-raw/voting_location_2018_wgs84.zip", quiet = TRUE)
unzip("data-raw/voting_location_2018_wgs84.zip", exdir="data-raw/voting_location_2018_wgs84")
toronto_locations <- sf::read_sf("data-raw/voting_location_2018_wgs84", 
                                 layer = "VOTING_LOCATION_2018_WGS84") %>%
  sf::st_transform(crs = "+init=epsg:4326")
toronto_locations

## Simple feature collection with 1700 features and 13 fields
## geometry type:  POINT
## dimension:      XY
## bbox:           xmin: -79.61937 ymin: 43.59062 xmax: -79.12531 ymax: 43.83052
## epsg (SRID):    4326
## proj4string:    +proj=longlat +datum=WGS84 +no_defs
## # A tibble: 1,700 x 14
##    POINT_ID FEAT_CD FEAT_C_DSC PT_SHRT_CD PT_LNG_CD POINT_NAME VOTER_CNT
##       <dbl> <chr>   <chr>      <chr>      <chr>     <chr>          <int>
##  1    10190 P       Primary    056        10056     <NA>              37
##  2    10064 P       Primary    060        10060     <NA>             532
##  3    10999 S       Secondary  058        10058     Malibu           661
##  4    11342 P       Primary    052        10052     <NA>            1914
##  5    10640 P       Primary    047        10047     The Summit       956
##  6    10487 S       Secondary  061        04061     White Eag…        51
##  7    11004 P       Primary    063        04063     Holy Fami…      1510
##  8    11357 P       Primary    024        11024     Rosedale …      1697
##  9    12044 P       Primary    018        05018     Weston Pu…      1695
## 10    11402 S       Secondary  066        04066     Elm Grove…        93
## # ... with 1,690 more rows, and 7 more variables: OBJECTID <dbl>,
## #   ADD_FULL <chr>, X <dbl>, Y <dbl>, LONGITUDE <dbl>, LATITUDE <dbl>,
## #   geometry <POINT [°]>
…
Given our goal of aggregating the votes received by each candidate into census tracts, we need a data frame that has each candidate in a separate column. We start by joining the major candidates table to the votes table. In this case, we also filter the votes to 2018, since John Tory has been a candidate in more than one election. Then we use the tidyr package to convert the table from long (with one candidate column) to wide (with a column for each candidate).

spread_votes <- toVotes %>%
  tibble::as.tibble() %>% 
  dplyr::filter(year == 2018) %>%
  dplyr::right_join(major_candidates) %>%
  dplyr::select(-type, -year) %>%
  tidyr::spread(candidate, votes)
spread_votes

## # A tibble: 1,800 x 4
##     ward  area `Keesmaat Jennifer` `Tory John`
##    <int> <int>               <dbl>       <dbl>
##  1     1     1                  66         301
##  2     1     2                  72         376
##  3     1     3                  40         255
##  4     1     4                  24         161
##  5     1     5                  51         211
##  6     1     6                  74         372
##  7     1     7                  70         378
##  8     1     8                  10          77
##  9     1     9                  11          82
## 10     1    10                  12          76
## # ... with 1,790 more rows
…
to_geo_votes <- toronto_locations %>%
  dplyr::mutate(ward = as.integer(stringr::str_sub(PT_LNG_CD, 1, 2)),
                area = as.integer(stringr::str_sub(PT_LNG_CD, -3, -1))) %>%
  dplyr::left_join(spread_votes) %>%
  dplyr::select(`Keesmaat Jennifer`, `Tory John`) %>%
  dplyr::rename(Keesmaat = `Keesmaat Jennifer`, Tory = `Tory John`)
to_geo_votes

## Simple feature collection with 1700 features and 2 fields
## geometry type:  POINT
## dimension:      XY
## bbox:           xmin: -79.61937 ymin: 43.59062 xmax: -79.12531 ymax: 43.83052
## epsg (SRID):    4326
## proj4string:    +proj=longlat +datum=WGS84 +no_defs
## # A tibble: 1,700 x 3
##    Keesmaat  Tory             geometry
##       <dbl> <dbl>          <POINT [°]>
##  1       55   101 (-79.40225 43.63641)
##  2       43    53  (-79.3985 43.63736)
##  3       61    89 (-79.40028 43.63664)
##  4      296   348 (-79.39922 43.63928)
##  5      151   204 (-79.40401 43.64293)
##  6        2    11 (-79.43941 43.63712)
##  7      161   174 (-79.43511 43.63869)
##  8      221   605  (-79.38188 43.6776)
##  9       68   213 (-79.52078 43.70176)
## 10        4    14 (-79.43094 43.64027)
## # ... with 1,690 more rows
…
