…
## Simple feature collection with 23 features and 2 fields
## geometry type:  MULTIPOINT
## dimension:      XY
## bbox:           xmin: -79.61919 ymin: 43.59068 xmax: -79.12511 ymax: 43.83057
## epsg (SRID):    4326
## proj4string:    +proj=longlat +datum=WGS84 +no_defs
## # A tibble: 23 x 3
##    electoral_distri… electoral_distric…                           geometry
##    <chr>             <chr>                                <MULTIPOINT [°]>
##  1 005               Beaches East York  (-79.32736 43.69452, -79.32495 43…
##  2 015               Davenport          (-79.4605 43.68283, -79.46003 43.…
##  3 016               Don Valley East    (-79.35985 43.78844, -79.3595 43.…
##  4 017               Don Valley West    (-79.40592 43.75026, -79.40524 43…
##  5 020               Eglinton Lawrence  (-79.46787 43.70595, -79.46376 43…
##  6 023               Etobicoke Centre   (-79.58697 43.6442, -79.58561 43.…
##  7 024               Etobicoke Lakesho… (-79.56213 43.61001, -79.5594 43.…
##  8 025               Etobicoke North    (-79.61919 43.72889, -79.61739 43…
##  9 068               Parkdale High Park (-79.49944 43.66285, -79.4988 43.…
## 10 072               Pickering Scarbor… (-79.18898 43.80374, -79.17927 43…
## # ... with 13 more rows
…
